Working with NHDPlusHR
…
#> # A tibble: 0 × 58
#> # ℹ 58 variables: Permanent_Identifier <chr>, FDate <dttm>, Resolution <int>,
#> #   GNIS_ID <chr>, GNIS_Name <chr>, LENGTHKM <dbl>, REACHCODE <chr>,
#> #   FlowDir <int>, WBArea_Permanent_Identifier <chr>, FTYPE <int>, FCODE <int>,
#> #   MainPath <int>, InNetwork <int>, VisibilityFilter <int>,
#> #   Shape_Length <dbl>, COMID <dbl>, VPUID <chr>, Enabled <int>,
#> #   Shape <MULTILINESTRING [°]>, StreamLeve <int>, StreamOrde <int>,
#> #   StreamCalc <int>, FromNode <dbl>, ToNode <dbl>, Hydroseq <dbl>, …
(standalone <- dplyr::filter(standalone_demo, TerminalPa == standalone_demo_outlet$Hydroseq))
#> Simple feature collection with 5358 features and 57 fields
#> Geometry type: MULTILINESTRING
#> Dimension:     XY
#> Bounding box:  xmin: -90.68076 ymin: 41.27482 xmax: -88.1999 ymax: 43.74949
#> Geodetic CRS:  NAD83
#> # A tibble: 5,358 × 58
#>    Permanent_Identifier FDate               Resolution GNIS_ID  GNIS_Name       
#>  * <chr>                <dttm>                   <int> <chr>    <chr>           
#>  1 156038282            2012-03-19 01:32:25          2 00415503 Pecatonica River
#>  2 155714162            2014-10-28 19:00:00          2 00424882 Fairfield Ditch…
#>  3 156035374            2012-03-19 01:35:08          2 01561947 Gordon Creek    
#>  4 145600320            2012-03-19 01:34:47          2 00416806 Rock Creek      
#>  5 155712981            2012-03-19 02:05:44          2 <NA>     <NA>            
#>  6 137417698            2012-03-18 13:07:31          2 01575030 Sugar River     
#>  7 156037500            2012-03-19 01:33:10          2 <NA>     <NA>            
#>  8 145599800            2012-03-19 01:34:47          2 00414599 North Fork Kent…
#>  9 143246785            2012-03-18 12:56:43          2 00416824 Rock River      
#> 10 155712415            2012-03-19 02:05:51          2 00424170 Willow Creek    
#> # ℹ 5,348 more rows
#> # ℹ 53 more variables: LENGTHKM <dbl>, REACHCODE <chr>, FlowDir <int>,
#> #   WBArea_Permanent_Identifier <chr>, FTYPE <int>, FCODE <int>,
#> #   MainPath <int>, InNetwork <int>, VisibilityFilter <int>,
#> #   Shape_Length <dbl>, COMID <dbl>, VPUID <chr>, Enabled <int>,
#> #   Shape <MULTILINESTRING [°]>, StreamLeve <int>, StreamOrde <int>,
#> #   StreamCalc <int>, FromNode <dbl>, ToNode <dbl>, Hydroseq <dbl>, …
…
